CDABS Intro to Programming - R Basics II - factors and data frames
…
variants[1:3, 1:3]

# A tibble: 3 × 3
  sample_id  CHROM         POS
  <chr>      <chr>       <dbl>
1 SRR2584863 CP000819.1   9972
2 SRR2584863 CP000819.1 263235
3 SRR2584863 CP000819.1 281923

If we want to select all rows and one or more columns, we leave the space before the comma blank.

variants[, 1:5]

# A tibble: 801 × 5
   sample_id  CHROM          POS ID    REF                             
   <chr>      <chr>        <dbl> <lgl> <chr>                           
 1 SRR2584863 CP000819.1    9972 NA    T                               
 2 SRR2584863 CP000819.1  263235 NA    G                               
 3 SRR2584863 CP000819.1  281923 NA    G                               
 4 SRR2584863 CP000819.1  433359 NA    CTTTTTTT                        
 5 SRR2584863 CP000819.1  473901 NA    CCGC                            
 6 SRR2584863 CP000819.1  648692 NA    C                               
 7 SRR2584863 CP000819.1 1331794 NA    C                               
 8 SRR2584863 CP000819.1 1733343 NA    G                               
 9 SRR2584863 CP000819.1 2103887 NA    ACAGCCAGCCAGCCAGCCAGCCAGCCAGCCAG
10 SRR2584863 CP000819.1 2333538 NA    AT                              
# ℹ 791 more rows

or we can leave out the comma entirely

variants[1:5]

# A tibble: 801 × 5
   sample_id  CHROM          POS ID    REF                             
   <chr>      <chr>        <dbl> <lgl> <chr>                           
 1 SRR2584863 CP000819.1    9972 NA    T                               
 2 SRR2584863 CP000819.1  263235 NA    G                               
 3 SRR2584863 CP000819.1  281923 NA    G                               
 4 SRR2584863 CP000819.1  433359 NA    CTTTTTTT                        
 5 SRR2584863 CP000819.1  473901 NA    CCGC                            
 6 SRR2584863 CP000819.1  648692 NA    C                               
 7 SRR2584863 CP000819.1 1331794 NA    C                               
 8 SRR2584863 CP000819.1 1733343 NA    G                               
 9 SRR2584863 CP000819.1 2103887 NA    ACAGCCAGCCAGCCAGCCAGCCAGCCAGCCAG
10 SRR2584863 CP000819.1 2333538 NA    AT                              
# ℹ 791 more rows
…
## extract the "ALT" column to a new object

alt_alleles <- variants_subset$ALT

head(alt_alleles)

[1] "G"         "T"         "T"         "CTTTTTTTT" "CCGCGC"    "T"        

Like with vectors, we can use brackets with logical operators to subset based on a condition. We can also use a combination of $ and [] notation. Since we are filtering for just the rows we want, we put the condition before the ,.

Let’s try some conditional filtering to look for just the rows with the nucleotide ‘A’ in the ALT column.

variants_subset[variants_subset$ALT == "A", ]

# A tibble: 211 × 4
   sample_id  CHROM          POS ALT  
   <chr>      <chr>        <dbl> <chr>
 1 SRR2584863 CP000819.1 1331794 A    
 2 SRR2584863 CP000819.1 1733343 A    
 3 SRR2584863 CP000819.1 2999330 A    
 4 SRR2584863 CP000819.1 3401754 A    
 5 SRR2584866 CP000819.1   10563 A    
 6 SRR2584866 CP000819.1   64042 A    
 7 SRR2584866 CP000819.1   98404 A    
 8 SRR2584866 CP000819.1  105581 A    
 9 SRR2584866 CP000819.1  241885 A    
10 SRR2584866 CP000819.1  241950 A    
# ℹ 201 more rows
…
