CDABS Intro to Programming - Data Wrangling and Analyses with Tidyverse
…
In the above output, we can already gather some information about variants, such as the number of rows and columns, column names, type of vector in the columns, and the first few entries of each column. Although what we see is similar to outputs of str(), this method gives a cleaner visual output.

select()

To select columns of a data frame, use select(). The first argument to this function is the data frame (variants), and the subsequent arguments are the columns to keep.

select(variants, sample_id, REF, ALT, DP)

# A tibble: 801 × 4
   sample_id  REF                              ALT                            DP
   <chr>      <chr>                            <chr>                       <dbl>
 1 SRR2584863 T                                G                               4
 2 SRR2584863 G                                T                               6
 3 SRR2584863 G                                T                              10
 4 SRR2584863 CTTTTTTT                         CTTTTTTTT                      12
 5 SRR2584863 CCGC                             CCGCGC                         10
 6 SRR2584863 C                                T                              10
 7 SRR2584863 C                                A                               8
 8 SRR2584863 G                                A                              11
 9 SRR2584863 ACAGCCAGCCAGCCAGCCAGCCAGCCAGCCAG ACAGCCAGCCAGCCAGCCAGCCAGCC…     3
10 SRR2584863 AT                               ATT                             7
# ℹ 791 more rows

To select all columns except certain ones, put a “-” in front of the variable to exclude it.

select(variants, -CHROM)

# A tibble: 801 × 28
   sample_id      POS ID    REF      ALT    QUAL FILTER INDEL   IDV    IMF    DP
   <chr>        <dbl> <lgl> <chr>    <chr> <dbl> <lgl>  <lgl> <dbl>  <dbl> <dbl>
 1 SRR2584863    9972 NA    T        G        91 NA     FALSE    NA NA         4
 2 SRR2584863  263235 NA    G        T        85 NA     FALSE    NA NA         6
 3 SRR2584863  281923 NA    G        T       217 NA     FALSE    NA NA        10
 4 SRR2584863  433359 NA    CTTTTTTT CTTT…    64 NA     TRUE     12  1        12
 5 SRR2584863  473901 NA    CCGC     CCGC…   228 NA     TRUE      9  0.9      10
 6 SRR2584863  648692 NA    C        T       210 NA     FALSE    NA NA        10
 7 SRR2584863 1331794 NA    C        A       178 NA     FALSE    NA NA         8
 8 SRR2584863 1733343 NA    G        A       225 NA     FALSE    NA NA        11
 9 SRR2584863 2103887 NA    ACAGCCA… ACAG…    56 NA     TRUE      2  0.667     3
10 SRR2584863 2333538 NA    AT       ATT     167 NA     TRUE      7  1         7
# ℹ 791 more rows
# ℹ 17 more variables: VDB <dbl>, RPB <dbl>, MQB <dbl>, BQB <dbl>, MQSB <dbl>,
#   SGB <dbl>, MQ0F <dbl>, ICB <lgl>, HOB <lgl>, AC <dbl>, AN <dbl>, DP4 <chr>,
#   MQ <dbl>, Indiv <chr>, gt_PL <dbl>, gt_GT <dbl>, gt_GT_alleles <chr>

dplyr also provides useful functions to select columns based on their names. For instance, ends_with() allows you to select columns that ends with specific letters. For instance, if you wanted to select columns that end with the letter “B”:

select(variants, ends_with("B"))

# A tibble: 801 × 8
      VDB   RPB   MQB   BQB   MQSB    SGB ICB   HOB  
    <dbl> <dbl> <dbl> <dbl>  <dbl>  <dbl> <lgl> <lgl>
 1 0.0257    NA    NA    NA NA     -0.556 NA    NA   
 2 0.0961     1     1     1 NA     -0.591 NA    NA   
 3 0.774     NA    NA    NA  0.975 -0.662 NA    NA   
 4 0.478     NA    NA    NA  1     -0.676 NA    NA   
 5 0.660     NA    NA    NA  0.916 -0.662 NA    NA   
 6 0.268     NA    NA    NA  0.916 -0.670 NA    NA   
 7 0.624     NA    NA    NA  0.901 -0.651 NA    NA   
 8 0.992     NA    NA    NA  1.01  -0.670 NA    NA   
 9 0.902     NA    NA    NA  1     -0.454 NA    NA   
10 0.568     NA    NA    NA  1.01  -0.617 NA    NA   
# ℹ 791 more rows
…
Check out the help documentation for select() and see what other helper functions are available.

The pipe %>%

We can make our task easier by using a special operator called the pipe. Pipes let you take the output of one function and send it directly to the next, which is useful when you need to do many things to the same data set. This helps you avoid messy and hard to read nested expressions, or needing to create many intermediate objects.

Pipes in R look like %>% and are made available via the magrittr package, which is installed as part of dplyr. If you use RStudio, you can type the pipe with Ctrl + Shift + M if you’re using a PC, or Cmd + Shift + M if you’re using a Mac.

The first required argument of most dplyr functions is the data frame you will be performing the function on. Therefore, an expression using the pipe will usually start with a data frame. So let’s try rewriting our select statement to use the pipe.

variants %>% 
  select(sample_id, REF, ALT, DP)

# A tibble: 801 × 4
   sample_id  REF                              ALT                            DP
   <chr>      <chr>                            <chr>                       <dbl>
 1 SRR2584863 T                                G                               4
 2 SRR2584863 G                                T                               6
 3 SRR2584863 G                                T                              10
 4 SRR2584863 CTTTTTTT                         CTTTTTTTT                      12
 5 SRR2584863 CCGC                             CCGCGC                         10
 6 SRR2584863 C                                T                              10
 7 SRR2584863 C                                A                               8
 8 SRR2584863 G                                A                              11
 9 SRR2584863 ACAGCCAGCCAGCCAGCCAGCCAGCCAGCCAG ACAGCCAGCCAGCCAGCCAGCCAGCC…     3
10 SRR2584863 AT                               ATT                             7
# ℹ 791 more rows
Notice that when you use the pipe RStudio will be able to helpfully autocomplete column names for you, which is a good way to reduce typing and avoid errors.

Exercise

Create a table that contains all the columns with the letter “i” and column “POS”, without columns “Indiv” and “FILTER”. Hint: look at for a function called contains(), which can be found in the help documentation for ends with we just covered (?ends_with). Note that contains() is not case sensistive.

Solution

# First, we select "POS" and all columns with letter "i". This will contain columns Indiv and FILTER. 
variants_subset <- select(variants, POS, contains("i"))
# Next, we remove columns Indiv and FILTER
variants_result <- select(variants_subset, -Indiv, -FILTER)
variants_result

# A tibble: 801 × 7
       POS sample_id  ID    INDEL   IDV    IMF ICB  
     <dbl> <chr>      <lgl> <lgl> <dbl>  <dbl> <lgl>
 1    9972 SRR2584863 NA    FALSE    NA NA     NA   
 2  263235 SRR2584863 NA    FALSE    NA NA     NA   
 3  281923 SRR2584863 NA    FALSE    NA NA     NA   
 4  433359 SRR2584863 NA    TRUE     12  1     NA   
 5  473901 SRR2584863 NA    TRUE      9  0.9   NA   
 6  648692 SRR2584863 NA    FALSE    NA NA     NA   
 7 1331794 SRR2584863 NA    FALSE    NA NA     NA   
 8 1733343 SRR2584863 NA    FALSE    NA NA     NA   
 9 2103887 SRR2584863 NA    TRUE      2  0.667 NA   
10 2333538 SRR2584863 NA    TRUE      7  1     NA   
# ℹ 791 more rows

We can also get to variants_result in one line of code:

Alternative solution

variants_result <- select(variants, POS, contains("i"), -Indiv, -FILTER)
variants_result

# A tibble: 801 × 7
       POS sample_id  ID    INDEL   IDV    IMF ICB  
     <dbl> <chr>      <lgl> <lgl> <dbl>  <dbl> <lgl>
 1    9972 SRR2584863 NA    FALSE    NA NA     NA   
 2  263235 SRR2584863 NA    FALSE    NA NA     NA   
 3  281923 SRR2584863 NA    FALSE    NA NA     NA   
 4  433359 SRR2584863 NA    TRUE     12  1     NA   
 5  473901 SRR2584863 NA    TRUE      9  0.9   NA   
 6  648692 SRR2584863 NA    FALSE    NA NA     NA   
 7 1331794 SRR2584863 NA    FALSE    NA NA     NA   
 8 1733343 SRR2584863 NA    FALSE    NA NA     NA   
 9 2103887 SRR2584863 NA    TRUE      2  0.667 NA   
10 2333538 SRR2584863 NA    TRUE      7  1     NA   
# ℹ 791 more rows

filter()

select() lets you choose columns. To choose rows, use filter():

variants %>% 
  filter(sample_id == "SRR2584863")

# A tibble: 25 × 29
   sample_id  CHROM        POS ID    REF   ALT    QUAL FILTER INDEL   IDV    IMF
   <chr>      <chr>      <dbl> <lgl> <chr> <chr> <dbl> <lgl>  <lgl> <dbl>  <dbl>
 1 SRR2584863 CP000819… 9.97e3 NA    T     G        91 NA     FALSE    NA NA    
 2 SRR2584863 CP000819… 2.63e5 NA    G     T        85 NA     FALSE    NA NA    
 3 SRR2584863 CP000819… 2.82e5 NA    G     T       217 NA     FALSE    NA NA    
 4 SRR2584863 CP000819… 4.33e5 NA    CTTT… CTTT…    64 NA     TRUE     12  1    
 5 SRR2584863 CP000819… 4.74e5 NA    CCGC  CCGC…   228 NA     TRUE      9  0.9  
 6 SRR2584863 CP000819… 6.49e5 NA    C     T       210 NA     FALSE    NA NA    
 7 SRR2584863 CP000819… 1.33e6 NA    C     A       178 NA     FALSE    NA NA    
 8 SRR2584863 CP000819… 1.73e6 NA    G     A       225 NA     FALSE    NA NA    
 9 SRR2584863 CP000819… 2.10e6 NA    ACAG… ACAG…    56 NA     TRUE      2  0.667
10 SRR2584863 CP000819… 2.33e6 NA    AT    ATT     167 NA     TRUE      7  1    
# ℹ 15 more rows
# ℹ 18 more variables: DP <dbl>, VDB <dbl>, RPB <dbl>, MQB <dbl>, BQB <dbl>,
#   MQSB <dbl>, SGB <dbl>, MQ0F <dbl>, ICB <lgl>, HOB <lgl>, AC <dbl>,
#   AN <dbl>, DP4 <chr>, MQ <dbl>, Indiv <chr>, gt_PL <dbl>, gt_GT <dbl>,
#   gt_GT_alleles <chr>

filter() will keep all the rows that match the conditions that are provided. Here are a few examples:

# rows for which the reference genome has T or G
variants %>% 
  filter(REF %in% c("T", "G"))

# A tibble: 340 × 29
   sample_id CHROM    POS ID    REF   ALT    QUAL FILTER INDEL   IDV   IMF    DP
   <chr>     <chr>  <dbl> <lgl> <chr> <chr> <dbl> <lgl>  <lgl> <dbl> <dbl> <dbl>
 1 SRR25848… CP00… 9.97e3 NA    T     G      91   NA     FALSE    NA    NA     4
 2 SRR25848… CP00… 2.63e5 NA    G     T      85   NA     FALSE    NA    NA     6
 3 SRR25848… CP00… 2.82e5 NA    G     T     217   NA     FALSE    NA    NA    10
 4 SRR25848… CP00… 1.73e6 NA    G     A     225   NA     FALSE    NA    NA    11
 5 SRR25848… CP00… 2.62e6 NA    G     T      31.9 NA     FALSE    NA    NA    12
 6 SRR25848… CP00… 3.00e6 NA    G     A     225   NA     FALSE    NA    NA    15
 7 SRR25848… CP00… 3.91e6 NA    G     T     225   NA     FALSE    NA    NA    10
 8 SRR25848… CP00… 9.97e3 NA    T     G     214   NA     FALSE    NA    NA    10
 9 SRR25848… CP00… 1.06e4 NA    G     A     225   NA     FALSE    NA    NA    11
10 SRR25848… CP00… 6.40e4 NA    G     A     225   NA     FALSE    NA    NA    18
# ℹ 330 more rows
# ℹ 17 more variables: VDB <dbl>, RPB <dbl>, MQB <dbl>, BQB <dbl>, MQSB <dbl>,
#   SGB <dbl>, MQ0F <dbl>, ICB <lgl>, HOB <lgl>, AC <dbl>, AN <dbl>, DP4 <chr>,
#   MQ <dbl>, Indiv <chr>, gt_PL <dbl>, gt_GT <dbl>, gt_GT_alleles <chr>

# rows that have TRUE in the column INDEL
variants %>% 
  filter(INDEL)

# A tibble: 101 × 29
   sample_id CHROM    POS ID    REF   ALT    QUAL FILTER INDEL   IDV   IMF    DP
   <chr>     <chr>  <dbl> <lgl> <chr> <chr> <dbl> <lgl>  <lgl> <dbl> <dbl> <dbl>
 1 SRR25848… CP00… 4.33e5 NA    CTTT… CTTT…  64   NA     TRUE     12 1        12
 2 SRR25848… CP00… 4.74e5 NA    CCGC  CCGC… 228   NA     TRUE      9 0.9      10
 3 SRR25848… CP00… 2.10e6 NA    ACAG… ACAG…  56   NA     TRUE      2 0.667     3
 4 SRR25848… CP00… 2.33e6 NA    AT    ATT   167   NA     TRUE      7 1         7
 5 SRR25848… CP00… 3.90e6 NA    A     AC     43.4 NA     TRUE      2 1         2
 6 SRR25848… CP00… 4.43e6 NA    TGG   T     228   NA     TRUE     10 1        10
 7 SRR25848… CP00… 1.48e5 NA    AGGGG AGGG… 122   NA     TRUE      8 1         8
 8 SRR25848… CP00… 1.58e5 NA    GTTT… GTTT…  19.5 NA     TRUE      6 1         6
 9 SRR25848… CP00… 1.73e5 NA    CAA   CA    180   NA     TRUE     11 1        11
10 SRR25848… CP00… 1.75e5 NA    GAA   GA    194   NA     TRUE     10 1        10
# ℹ 91 more rows
# ℹ 17 more variables: VDB <dbl>, RPB <dbl>, MQB <dbl>, BQB <dbl>, MQSB <dbl>,
#   SGB <dbl>, MQ0F <dbl>, ICB <lgl>, HOB <lgl>, AC <dbl>, AN <dbl>, DP4 <chr>,
#   MQ <dbl>, Indiv <chr>, gt_PL <dbl>, gt_GT <dbl>, gt_GT_alleles <chr>

# rows that don't have missing data in the IDV column
variants %>% 
  filter(!is.na(IDV))

# A tibble: 101 × 29
   sample_id CHROM    POS ID    REF   ALT    QUAL FILTER INDEL   IDV   IMF    DP
   <chr>     <chr>  <dbl> <lgl> <chr> <chr> <dbl> <lgl>  <lgl> <dbl> <dbl> <dbl>
 1 SRR25848… CP00… 4.33e5 NA    CTTT… CTTT…  64   NA     TRUE     12 1        12
 2 SRR25848… CP00… 4.74e5 NA    CCGC  CCGC… 228   NA     TRUE      9 0.9      10
 3 SRR25848… CP00… 2.10e6 NA    ACAG… ACAG…  56   NA     TRUE      2 0.667     3
 4 SRR25848… CP00… 2.33e6 NA    AT    ATT   167   NA     TRUE      7 1         7
 5 SRR25848… CP00… 3.90e6 NA    A     AC     43.4 NA     TRUE      2 1         2
 6 SRR25848… CP00… 4.43e6 NA    TGG   T     228   NA     TRUE     10 1        10
 7 SRR25848… CP00… 1.48e5 NA    AGGGG AGGG… 122   NA     TRUE      8 1         8
 8 SRR25848… CP00… 1.58e5 NA    GTTT… GTTT…  19.5 NA     TRUE      6 1         6
 9 SRR25848… CP00… 1.73e5 NA    CAA   CA    180   NA     TRUE     11 1        11
10 SRR25848… CP00… 1.75e5 NA    GAA   GA    194   NA     TRUE     10 1        10
# ℹ 91 more rows
# ℹ 17 more variables: VDB <dbl>, RPB <dbl>, MQB <dbl>, BQB <dbl>, MQSB <dbl>,
#   SGB <dbl>, MQ0F <dbl>, ICB <lgl>, HOB <lgl>, AC <dbl>, AN <dbl>, DP4 <chr>,
#   MQ <dbl>, Indiv <chr>, gt_PL <dbl>, gt_GT <dbl>, gt_GT_alleles <chr>

We have a column titled “QUAL”. This is a Phred-scaled confidence score that a polymorphism exists at this position given the sequencing data. Lower QUAL scores indicate low probability of a polymorphism existing at that site. filter() can be useful for selecting mutations that have a QUAL score above a certain threshold:

# rows with QUAL values greater than or equal to 100
variants %>% 
  filter(QUAL >= 100)

# A tibble: 666 × 29
   sample_id CHROM    POS ID    REF   ALT    QUAL FILTER INDEL   IDV   IMF    DP
   <chr>     <chr>  <dbl> <lgl> <chr> <chr> <dbl> <lgl>  <lgl> <dbl> <dbl> <dbl>
 1 SRR25848… CP00… 2.82e5 NA    G     T       217 NA     FALSE    NA  NA      10
 2 SRR25848… CP00… 4.74e5 NA    CCGC  CCGC…   228 NA     TRUE      9   0.9    10
 3 SRR25848… CP00… 6.49e5 NA    C     T       210 NA     FALSE    NA  NA      10
 4 SRR25848… CP00… 1.33e6 NA    C     A       178 NA     FALSE    NA  NA       8
 5 SRR25848… CP00… 1.73e6 NA    G     A       225 NA     FALSE    NA  NA      11
 6 SRR25848… CP00… 2.33e6 NA    AT    ATT     167 NA     TRUE      7   1       7
 7 SRR25848… CP00… 2.41e6 NA    A     C       104 NA     FALSE    NA  NA       9
 8 SRR25848… CP00… 2.45e6 NA    A     C       225 NA     FALSE    NA  NA      20
 9 SRR25848… CP00… 2.67e6 NA    A     T       225 NA     FALSE    NA  NA      19
10 SRR25848… CP00… 3.00e6 NA    G     A       225 NA     FALSE    NA  NA      15
# ℹ 656 more rows
# ℹ 17 more variables: VDB <dbl>, RPB <dbl>, MQB <dbl>, BQB <dbl>, MQSB <dbl>,
#   SGB <dbl>, MQ0F <dbl>, ICB <lgl>, HOB <lgl>, AC <dbl>, AN <dbl>, DP4 <chr>,
#   MQ <dbl>, Indiv <chr>, gt_PL <dbl>, gt_GT <dbl>, gt_GT_alleles <chr>
…
# using `|` logical operator
variants %>% 
  filter(sample_id == "SRR2584863", (MQ >= 50 | QUAL >= 100))

# A tibble: 23 × 29
   sample_id  CHROM        POS ID    REF   ALT    QUAL FILTER INDEL   IDV    IMF
   <chr>      <chr>      <dbl> <lgl> <chr> <chr> <dbl> <lgl>  <lgl> <dbl>  <dbl>
 1 SRR2584863 CP000819… 9.97e3 NA    T     G        91 NA     FALSE    NA NA    
 2 SRR2584863 CP000819… 2.82e5 NA    G     T       217 NA     FALSE    NA NA    
 3 SRR2584863 CP000819… 4.33e5 NA    CTTT… CTTT…    64 NA     TRUE     12  1    
 4 SRR2584863 CP000819… 4.74e5 NA    CCGC  CCGC…   228 NA     TRUE      9  0.9  
 5 SRR2584863 CP000819… 6.49e5 NA    C     T       210 NA     FALSE    NA NA    
 6 SRR2584863 CP000819… 1.33e6 NA    C     A       178 NA     FALSE    NA NA    
 7 SRR2584863 CP000819… 1.73e6 NA    G     A       225 NA     FALSE    NA NA    
 8 SRR2584863 CP000819… 2.10e6 NA    ACAG… ACAG…    56 NA     TRUE      2  0.667
 9 SRR2584863 CP000819… 2.33e6 NA    AT    ATT     167 NA     TRUE      7  1    
10 SRR2584863 CP000819… 2.41e6 NA    A     C       104 NA     FALSE    NA NA    
# ℹ 13 more rows
# ℹ 18 more variables: DP <dbl>, VDB <dbl>, RPB <dbl>, MQB <dbl>, BQB <dbl>,
#   MQSB <dbl>, SGB <dbl>, MQ0F <dbl>, ICB <lgl>, HOB <lgl>, AC <dbl>,
#   AN <dbl>, DP4 <chr>, MQ <dbl>, Indiv <chr>, gt_PL <dbl>, gt_GT <dbl>,
#   gt_GT_alleles <chr>

Exercise

Select all the mutations that occurred between the positions 1e6 (one million) and 2e6 (inclusive) that have a QUAL greater than 200, and exclude INDEL mutations. Hint: to flip logical values such as TRUE to a FALSE, we can use to negation symbol “!”. (eg. !TRUE == FALSE).

Solution

filter(variants, POS >= 1e6 & POS <= 2e6, QUAL > 200, !INDEL)

# A tibble: 77 × 29
   sample_id CHROM    POS ID    REF   ALT    QUAL FILTER INDEL   IDV   IMF    DP
   <chr>     <chr>  <dbl> <lgl> <chr> <chr> <dbl> <lgl>  <lgl> <dbl> <dbl> <dbl>
 1 SRR25848… CP00… 1.73e6 NA    G     A       225 NA     FALSE    NA    NA    11
 2 SRR25848… CP00… 1.00e6 NA    A     G       225 NA     FALSE    NA    NA    15
 3 SRR25848… CP00… 1.02e6 NA    A     G       225 NA     FALSE    NA    NA    12
 4 SRR25848… CP00… 1.06e6 NA    C     T       225 NA     FALSE    NA    NA    17
 5 SRR25848… CP00… 1.06e6 NA    A     G       206 NA     FALSE    NA    NA     9
 6 SRR25848… CP00… 1.07e6 NA    G     T       225 NA     FALSE    NA    NA    11
 7 SRR25848… CP00… 1.07e6 NA    T     C       225 NA     FALSE    NA    NA    12
 8 SRR25848… CP00… 1.10e6 NA    C     T       225 NA     FALSE    NA    NA    15
 9 SRR25848… CP00… 1.11e6 NA    C     T       212 NA     FALSE    NA    NA     9
10 SRR25848… CP00… 1.11e6 NA    A     G       225 NA     FALSE    NA    NA    14
# ℹ 67 more rows
# ℹ 17 more variables: VDB <dbl>, RPB <dbl>, MQB <dbl>, BQB <dbl>, MQSB <dbl>,
#   SGB <dbl>, MQ0F <dbl>, ICB <lgl>, HOB <lgl>, AC <dbl>, AN <dbl>, DP4 <chr>,
#   MQ <dbl>, Indiv <chr>, gt_PL <dbl>, gt_GT <dbl>, gt_GT_alleles <chr>

Because of the pipe it’s easy to combine different actions like selecting and filtering without the need to create intermediate objects or write messy nested code.

variants %>%
  filter(sample_id == "SRR2584863") %>%
  select(REF, ALT, DP)

# A tibble: 25 × 3
   REF                              ALT                                       DP
   <chr>                            <chr>                                  <dbl>
 1 T                                G                                          4
 2 G                                T                                          6
 3 G                                T                                         10
 4 CTTTTTTT                         CTTTTTTTT                                 12
 5 CCGC                             CCGCGC                                    10
 6 C                                T                                         10
 7 C                                A                                          8
 8 G                                A                                         11
 9 ACAGCCAGCCAGCCAGCCAGCCAGCCAGCCAG ACAGCCAGCCAGCCAGCCAGCCAGCCAGCCAGCCAGC…     3
10 AT                               ATT                                        7
# ℹ 15 more rows
…
